-- Merging decision tree log ---
manifest
ADDED from C:\Users\3Embed\Desktop\Trgovina_code_comiited\trgovina_android\Yelo\simplecropmodule\AndroidManifest.xml:2:1-7:12
INJECTED from C:\Users\3Embed\Desktop\Trgovina_code_comiited\trgovina_android\Yelo\simplecropmodule\AndroidManifest.xml:2:1-7:12
INJECTED from C:\Users\3Embed\Desktop\Trgovina_code_comiited\trgovina_android\Yelo\simplecropmodule\AndroidManifest.xml:2:1-7:12
INJECTED from C:\Users\3Embed\Desktop\Trgovina_code_comiited\trgovina_android\Yelo\simplecropmodule\AndroidManifest.xml:2:1-7:12
INJECTED from C:\Users\3Embed\Desktop\Trgovina_code_comiited\trgovina_android\Yelo\simplecropmodule\AndroidManifest.xml:2:1-7:12
INJECTED from C:\Users\3Embed\Desktop\Trgovina_code_comiited\trgovina_android\Yelo\simplecropmodule\AndroidManifest.xml:2:1-7:12
INJECTED from C:\Users\3Embed\Desktop\Trgovina_code_comiited\trgovina_android\Yelo\simplecropmodule\AndroidManifest.xml:2:1-7:12
	package
		ADDED from C:\Users\3Embed\Desktop\Trgovina_code_comiited\trgovina_android\Yelo\simplecropmodule\AndroidManifest.xml:3:11-58
		INJECTED from C:\Users\3Embed\Desktop\Trgovina_code_comiited\trgovina_android\Yelo\simplecropmodule\AndroidManifest.xml
		INJECTED from C:\Users\3Embed\Desktop\Trgovina_code_comiited\trgovina_android\Yelo\simplecropmodule\AndroidManifest.xml
	android:versionName
		ADDED from C:\Users\3Embed\Desktop\Trgovina_code_comiited\trgovina_android\Yelo\simplecropmodule\AndroidManifest.xml:5:11-36
		INJECTED from C:\Users\3Embed\Desktop\Trgovina_code_comiited\trgovina_android\Yelo\simplecropmodule\AndroidManifest.xml
		INJECTED from C:\Users\3Embed\Desktop\Trgovina_code_comiited\trgovina_android\Yelo\simplecropmodule\AndroidManifest.xml
	xmlns:android
		ADDED from C:\Users\3Embed\Desktop\Trgovina_code_comiited\trgovina_android\Yelo\simplecropmodule\AndroidManifest.xml:2:11-69
	android:versionCode
		ADDED from C:\Users\3Embed\Desktop\Trgovina_code_comiited\trgovina_android\Yelo\simplecropmodule\AndroidManifest.xml:4:11-34
		INJECTED from C:\Users\3Embed\Desktop\Trgovina_code_comiited\trgovina_android\Yelo\simplecropmodule\AndroidManifest.xml
		INJECTED from C:\Users\3Embed\Desktop\Trgovina_code_comiited\trgovina_android\Yelo\simplecropmodule\AndroidManifest.xml
uses-sdk
INJECTED from C:\Users\3Embed\Desktop\Trgovina_code_comiited\trgovina_android\Yelo\simplecropmodule\AndroidManifest.xml reason: use-sdk injection requested
INJECTED from C:\Users\3Embed\Desktop\Trgovina_code_comiited\trgovina_android\Yelo\simplecropmodule\AndroidManifest.xml
INJECTED from C:\Users\3Embed\Desktop\Trgovina_code_comiited\trgovina_android\Yelo\simplecropmodule\AndroidManifest.xml
INJECTED from C:\Users\3Embed\Desktop\Trgovina_code_comiited\trgovina_android\Yelo\simplecropmodule\AndroidManifest.xml
INJECTED from C:\Users\3Embed\Desktop\Trgovina_code_comiited\trgovina_android\Yelo\simplecropmodule\AndroidManifest.xml
	android:targetSdkVersion
		INJECTED from C:\Users\3Embed\Desktop\Trgovina_code_comiited\trgovina_android\Yelo\simplecropmodule\AndroidManifest.xml
		ADDED from C:\Users\3Embed\Desktop\Trgovina_code_comiited\trgovina_android\Yelo\simplecropmodule\AndroidManifest.xml
		INJECTED from C:\Users\3Embed\Desktop\Trgovina_code_comiited\trgovina_android\Yelo\simplecropmodule\AndroidManifest.xml
	android:minSdkVersion
		INJECTED from C:\Users\3Embed\Desktop\Trgovina_code_comiited\trgovina_android\Yelo\simplecropmodule\AndroidManifest.xml
		ADDED from C:\Users\3Embed\Desktop\Trgovina_code_comiited\trgovina_android\Yelo\simplecropmodule\AndroidManifest.xml
		INJECTED from C:\Users\3Embed\Desktop\Trgovina_code_comiited\trgovina_android\Yelo\simplecropmodule\AndroidManifest.xml
